module github.com/khulnasoft/kengine-starter-datasource-backend

go 1.21

toolchain go1.21.6

require github.com/khulnasoft/kengine-plugin-sdk-go v0.0.0-20240212063705-feff6d105219

require (
	cloud.google.com/go v0.110.8 // indirect
	cloud.google.com/go/accessapproval v1.7.1 // indirect
	cloud.google.com/go/accesscontextmanager v1.8.1 // indirect
	cloud.google.com/go/aiplatform v1.50.0 // indirect
	cloud.google.com/go/analytics v0.21.3 // indirect
	cloud.google.com/go/apigateway v1.6.1 // indirect
	cloud.google.com/go/apigeeconnect v1.6.1 // indirect
	cloud.google.com/go/apigeeregistry v0.7.1 // indirect
	cloud.google.com/go/apikeys v0.6.0 // indirect
	cloud.google.com/go/appengine v1.8.1 // indirect
	cloud.google.com/go/area120 v0.8.1 // indirect
	cloud.google.com/go/artifactregistry v1.14.1 // indirect
	cloud.google.com/go/asset v1.14.1 // indirect
	cloud.google.com/go/assuredworkloads v1.11.1 // indirect
	cloud.google.com/go/automl v1.13.1 // indirect
	cloud.google.com/go/baremetalsolution v1.2.0 // indirect
	cloud.google.com/go/batch v1.4.1 // indirect
	cloud.google.com/go/beyondcorp v1.0.0 // indirect
	cloud.google.com/go/bigquery v1.55.0 // indirect
	cloud.google.com/go/billing v1.17.0 // indirect
	cloud.google.com/go/binaryauthorization v1.7.0 // indirect
	cloud.google.com/go/certificatemanager v1.7.1 // indirect
	cloud.google.com/go/channel v1.17.0 // indirect
	cloud.google.com/go/cloudbuild v1.14.0 // indirect
	cloud.google.com/go/clouddms v1.7.0 // indirect
	cloud.google.com/go/cloudtasks v1.12.1 // indirect
	cloud.google.com/go/compute v1.23.0 // indirect
	cloud.google.com/go/compute/metadata v0.2.3 // indirect
	cloud.google.com/go/contactcenterinsights v1.10.0 // indirect
	cloud.google.com/go/container v1.26.0 // indirect
	cloud.google.com/go/containeranalysis v0.11.0 // indirect
	cloud.google.com/go/datacatalog v1.17.1 // indirect
	cloud.google.com/go/dataflow v0.9.1 // indirect
	cloud.google.com/go/dataform v0.8.1 // indirect
	cloud.google.com/go/datafusion v1.7.1 // indirect
	cloud.google.com/go/datalabeling v0.8.1 // indirect
	cloud.google.com/go/dataplex v1.9.1 // indirect
	cloud.google.com/go/dataproc v1.12.0 // indirect
	cloud.google.com/go/dataproc/v2 v2.2.0 // indirect
	cloud.google.com/go/dataqna v0.8.1 // indirect
	cloud.google.com/go/datastore v1.14.0 // indirect
	cloud.google.com/go/datastream v1.10.0 // indirect
	cloud.google.com/go/deploy v1.13.0 // indirect
	cloud.google.com/go/dialogflow v1.43.0 // indirect
	cloud.google.com/go/dlp v1.10.1 // indirect
	cloud.google.com/go/documentai v1.22.1 // indirect
	cloud.google.com/go/domains v0.9.1 // indirect
	cloud.google.com/go/edgecontainer v1.1.1 // indirect
	cloud.google.com/go/errorreporting v0.3.0 // indirect
	cloud.google.com/go/essentialcontacts v1.6.2 // indirect
	cloud.google.com/go/eventarc v1.13.0 // indirect
	cloud.google.com/go/filestore v1.7.1 // indirect
	cloud.google.com/go/firestore v1.13.0 // indirect
	cloud.google.com/go/functions v1.15.1 // indirect
	cloud.google.com/go/gaming v1.10.1 // indirect
	cloud.google.com/go/gkebackup v1.3.1 // indirect
	cloud.google.com/go/gkeconnect v0.8.1 // indirect
	cloud.google.com/go/gkehub v0.14.1 // indirect
	cloud.google.com/go/gkemulticloud v1.0.0 // indirect
	cloud.google.com/go/grafeas v0.3.0 // indirect
	cloud.google.com/go/gsuiteaddons v1.6.1 // indirect
	cloud.google.com/go/iam v1.1.2 // indirect
	cloud.google.com/go/iap v1.9.0 // indirect
	cloud.google.com/go/ids v1.4.1 // indirect
	cloud.google.com/go/iot v1.7.1 // indirect
	cloud.google.com/go/kms v1.15.2 // indirect
	cloud.google.com/go/language v1.11.0 // indirect
	cloud.google.com/go/lifesciences v0.9.1 // indirect
	cloud.google.com/go/logging v1.8.1 // indirect
	cloud.google.com/go/longrunning v0.5.1 // indirect
	cloud.google.com/go/managedidentities v1.6.1 // indirect
	cloud.google.com/go/maps v1.4.0 // indirect
	cloud.google.com/go/mediatranslation v0.8.1 // indirect
	cloud.google.com/go/memcache v1.10.1 // indirect
	cloud.google.com/go/metastore v1.12.0 // indirect
	cloud.google.com/go/monitoring v1.16.0 // indirect
	cloud.google.com/go/networkconnectivity v1.13.0 // indirect
	cloud.google.com/go/networkmanagement v1.9.0 // indirect
	cloud.google.com/go/networksecurity v0.9.1 // indirect
	cloud.google.com/go/notebooks v1.10.0 // indirect
	cloud.google.com/go/optimization v1.5.0 // indirect
	cloud.google.com/go/orchestration v1.8.1 // indirect
	cloud.google.com/go/orgpolicy v1.11.1 // indirect
	cloud.google.com/go/osconfig v1.12.1 // indirect
	cloud.google.com/go/oslogin v1.10.1 // indirect
	cloud.google.com/go/phishingprotection v0.8.1 // indirect
	cloud.google.com/go/policytroubleshooter v1.9.0 // indirect
	cloud.google.com/go/privatecatalog v0.9.1 // indirect
	cloud.google.com/go/pubsub v1.33.0 // indirect
	cloud.google.com/go/pubsublite v1.8.1 // indirect
	cloud.google.com/go/recaptchaenterprise v1.3.1 // indirect
	cloud.google.com/go/recaptchaenterprise/v2 v2.7.2 // indirect
	cloud.google.com/go/recommendationengine v0.8.1 // indirect
	cloud.google.com/go/recommender v1.11.0 // indirect
	cloud.google.com/go/redis v1.13.1 // indirect
	cloud.google.com/go/resourcemanager v1.9.1 // indirect
	cloud.google.com/go/resourcesettings v1.6.1 // indirect
	cloud.google.com/go/retail v1.14.1 // indirect
	cloud.google.com/go/run v1.2.0 // indirect
	cloud.google.com/go/scheduler v1.10.1 // indirect
	cloud.google.com/go/secretmanager v1.11.1 // indirect
	cloud.google.com/go/security v1.15.1 // indirect
	cloud.google.com/go/securitycenter v1.23.0 // indirect
	cloud.google.com/go/servicecontrol v1.11.1 // indirect
	cloud.google.com/go/servicedirectory v1.11.0 // indirect
	cloud.google.com/go/servicemanagement v1.8.0 // indirect
	cloud.google.com/go/serviceusage v1.6.0 // indirect
	cloud.google.com/go/shell v1.7.1 // indirect
	cloud.google.com/go/spanner v1.49.0 // indirect
	cloud.google.com/go/speech v1.19.0 // indirect
	cloud.google.com/go/storage v1.30.1 // indirect
	cloud.google.com/go/storagetransfer v1.10.0 // indirect
	cloud.google.com/go/talent v1.6.2 // indirect
	cloud.google.com/go/texttospeech v1.7.1 // indirect
	cloud.google.com/go/tpu v1.6.1 // indirect
	cloud.google.com/go/trace v1.10.1 // indirect
	cloud.google.com/go/translate v1.9.0 // indirect
	cloud.google.com/go/video v1.20.0 // indirect
	cloud.google.com/go/videointelligence v1.11.1 // indirect
	cloud.google.com/go/vision v1.2.0 // indirect
	cloud.google.com/go/vision/v2 v2.7.2 // indirect
	cloud.google.com/go/vmmigration v1.7.1 // indirect
	cloud.google.com/go/vmwareengine v1.0.0 // indirect
	cloud.google.com/go/vpcaccess v1.7.1 // indirect
	cloud.google.com/go/webrisk v1.9.1 // indirect
	cloud.google.com/go/websecurityscanner v1.6.1 // indirect
	cloud.google.com/go/workflows v1.12.0 // indirect
	dmitri.shuralyov.com/gpu/mtl v0.0.0-20190408044501-666a987793e9 // indirect
	gioui.org v0.0.0-20210308172011-57750fc8a0a6 // indirect
	git.sr.ht/~sbinet/gg v0.3.1 // indirect
	github.com/BurntSushi/toml v1.3.2 // indirect
	github.com/BurntSushi/xgb v0.0.0-20160522181843-27f122750802 // indirect
	github.com/JohnCGriffin/overflow v0.0.0-20211019200055-46fa312c352c // indirect
	github.com/OneOfOne/xxhash v1.2.2 // indirect
	github.com/ajstarks/deck v0.0.0-20200831202436-30c9fc6549a9 // indirect
	github.com/ajstarks/deck/generate v0.0.0-20210309230005-c3f852c02e19 // indirect
	github.com/ajstarks/svgo v0.0.0-20211024235047-1546f124cd8b // indirect
	github.com/alecthomas/assert/v2 v2.3.0 // indirect
	github.com/alecthomas/kingpin/v2 v2.4.0 // indirect
	github.com/alecthomas/participle/v2 v2.1.0 // indirect
	github.com/alecthomas/repr v0.2.0 // indirect
	github.com/alecthomas/template v0.0.0-20190718012654-fb15b899a751 // indirect
	github.com/alecthomas/units v0.0.0-20211218093645-b94a6e3cc137 // indirect
	github.com/andybalholm/brotli v1.0.5 // indirect
	github.com/antihax/optional v1.0.0 // indirect
	github.com/apache/arrow/go/v10 v10.0.1 // indirect
	github.com/apache/arrow/go/v11 v11.0.0 // indirect
	github.com/apache/arrow/go/v12 v12.0.0 // indirect
	github.com/apache/arrow/go/v15 v15.0.0 // indirect
	github.com/apache/thrift v0.17.0 // indirect
	github.com/benbjohnson/clock v1.1.0 // indirect
	github.com/beorn7/perks v1.0.1 // indirect
	github.com/boombuler/barcode v1.0.1 // indirect
	github.com/bufbuild/protocompile v0.4.0 // indirect
	github.com/cenkalti/backoff/v4 v4.2.1 // indirect
	github.com/census-instrumentation/opencensus-proto v0.4.1 // indirect
	github.com/cespare/xxhash v1.1.0 // indirect
	github.com/cespare/xxhash/v2 v2.2.0 // indirect
	github.com/cheekybits/genny v1.0.0 // indirect
	github.com/chromedp/cdproto v0.0.0-20220208224320-6efb837e6bc2 // indirect
	github.com/chromedp/sysutil v1.0.0 // indirect
	github.com/chzyer/logex v1.2.0 // indirect
	github.com/chzyer/readline v1.5.0 // indirect
	github.com/chzyer/test v0.0.0-20210722231415-061457976a23 // indirect
	github.com/client9/misspell v0.3.4 // indirect
	github.com/cncf/udpa/go v0.0.0-20220112060539-c52dc94e7fbe // indirect
	github.com/cncf/xds/go v0.0.0-20230607035331-e9ce68804cb4 // indirect
	github.com/cpuguy83/go-md2man/v2 v2.0.2 // indirect
	github.com/creack/pty v1.1.9 // indirect
	github.com/davecgh/go-spew v1.1.1 // indirect
	github.com/docopt/docopt-go v0.0.0-20180111231733-ee0de3bc6815 // indirect
	github.com/dustin/go-humanize v1.0.1 // indirect
	github.com/elazarl/goproxy v0.0.0-20230731152917-f99041a5c027 // indirect
	github.com/elazarl/goproxy/ext v0.0.0-20220115173737-adb46da277ac // indirect
	github.com/envoyproxy/go-control-plane v0.11.1 // indirect
	github.com/envoyproxy/protoc-gen-validate v1.0.2 // indirect
	github.com/ettle/strcase v0.1.1 // indirect
	github.com/fatih/color v1.15.0 // indirect
	github.com/felixge/httpsnoop v1.0.4 // indirect
	github.com/fogleman/gg v1.3.0 // indirect
	github.com/fsnotify/fsnotify v1.4.7 // indirect
	github.com/getkin/kin-openapi v0.120.0 // indirect
	github.com/ghodss/yaml v1.0.0 // indirect
	github.com/go-fonts/dejavu v0.1.0 // indirect
	github.com/go-fonts/latin-modern v0.2.0 // indirect
	github.com/go-fonts/liberation v0.2.0 // indirect
	github.com/go-fonts/stix v0.1.0 // indirect
	github.com/go-gl/glfw v0.0.0-20190409004039-e6da0acd62b1 // indirect
	github.com/go-gl/glfw/v3.3/glfw v0.0.0-20200222043503-6f7a984d4dc4 // indirect
	github.com/go-jose/go-jose/v3 v3.0.1 // indirect
	github.com/go-kit/kit v0.9.0 // indirect
	github.com/go-kit/log v0.2.1 // indirect
	github.com/go-latex/latex v0.0.0-20210823091927-c0d11ff05a81 // indirect
	github.com/go-logfmt/logfmt v0.5.1 // indirect
	github.com/go-logr/logr v1.4.1 // indirect
	github.com/go-logr/stdr v1.2.2 // indirect
	github.com/go-openapi/jsonpointer v0.19.6 // indirect
	github.com/go-openapi/swag v0.22.4 // indirect
	github.com/go-pdf/fpdf v0.6.0 // indirect
	github.com/go-playground/assert/v2 v2.0.1 // indirect
	github.com/go-playground/locales v0.13.0 // indirect
	github.com/go-playground/universal-translator v0.17.0 // indirect
	github.com/go-playground/validator/v10 v10.4.1 // indirect
	github.com/go-stack/stack v1.8.0 // indirect
	github.com/go-test/deep v1.0.8 // indirect
	github.com/goccy/go-json v0.10.2 // indirect
	github.com/goccy/go-yaml v1.11.0 // indirect
	github.com/gogo/protobuf v1.3.2 // indirect
	github.com/golang/freetype v0.0.0-20170609003504-e2365dfdc4a0 // indirect
	github.com/golang/glog v1.1.2 // indirect
	github.com/golang/groupcache v0.0.0-20210331224755-41bb18bfe9da // indirect
	github.com/golang/mock v1.6.0 // indirect
	github.com/golang/protobuf v1.5.3 // indirect
	github.com/golang/snappy v0.0.4 // indirect
	github.com/google/btree v1.0.0 // indirect
	github.com/google/flatbuffers v23.5.26+incompatible // indirect
	github.com/google/go-cmp v0.6.0 // indirect
	github.com/google/gofuzz v1.0.0 // indirect
	github.com/google/martian v2.1.0+incompatible // indirect
	github.com/google/martian/v3 v3.3.2 // indirect
	github.com/google/pprof v0.0.0-20221118152302-e6195bd50e26 // indirect
	github.com/google/renameio v0.1.0 // indirect
	github.com/google/s2a-go v0.1.4 // indirect
	github.com/google/uuid v1.6.0 // indirect
	github.com/googleapis/enterprise-certificate-proxy v0.2.4 // indirect
	github.com/googleapis/gax-go/v2 v2.12.0 // indirect
	github.com/googleapis/go-type-adapters v1.0.0 // indirect
	github.com/googleapis/google-cloud-go-testing v0.0.0-20200911160855-bcd43fbb19e8 // indirect
	github.com/gopherjs/gopherjs v0.0.0-20181103185306-d547d1d9531e // indirect
	github.com/gorilla/mux v1.8.0 // indirect
	github.com/grpc-ecosystem/go-grpc-middleware v1.4.0 // indirect
	github.com/grpc-ecosystem/go-grpc-prometheus v1.2.0 // indirect
	github.com/grpc-ecosystem/grpc-gateway v1.16.0 // indirect
	github.com/grpc-ecosystem/grpc-gateway/v2 v2.16.2 // indirect
	github.com/hamba/avro/v2 v2.17.2 // indirect
	github.com/hashicorp/go-hclog v1.6.2 // indirect
	github.com/hashicorp/go-plugin v1.6.0 // indirect
	github.com/hashicorp/golang-lru v0.5.1 // indirect
	github.com/hashicorp/yamux v0.1.1 // indirect
	github.com/hexops/gotextdiff v1.0.3 // indirect
	github.com/iancoleman/strcase v0.2.0 // indirect
	github.com/ianlancetaylor/demangle v0.0.0-20220319035150-800ac71e25c2 // indirect
	github.com/invopop/yaml v0.2.0 // indirect
	github.com/jhump/gopoet v0.1.0 // indirect
	github.com/jhump/goprotoc v0.5.0 // indirect
	github.com/jhump/protoreflect v1.15.1 // indirect
	github.com/josharian/intern v1.0.0 // indirect
	github.com/jpillora/backoff v1.0.0 // indirect
	github.com/json-iterator/go v1.1.12 // indirect
	github.com/jstemmer/go-junit-report v0.9.1 // indirect
	github.com/jtolds/gls v4.2.1+incompatible // indirect
	github.com/julienschmidt/httprouter v1.3.0 // indirect
	github.com/jung-kurt/gofpdf v1.0.3-0.20190309125859-24315acbbda5 // indirect
	github.com/kballard/go-shellquote v0.0.0-20180428030007-95032a82bc51 // indirect
	github.com/kisielk/errcheck v1.5.0 // indirect
	github.com/kisielk/gotool v1.0.0 // indirect
	github.com/klauspost/asmfmt v1.3.2 // indirect
	github.com/klauspost/compress v1.16.7 // indirect
	github.com/klauspost/cpuid/v2 v2.2.5 // indirect
	github.com/konsorten/go-windows-terminal-sequences v1.0.3 // indirect
	github.com/kr/fs v0.1.0 // indirect
	github.com/kr/logfmt v0.0.0-20140226030751-b84e30acd515 // indirect
	github.com/kr/pretty v0.3.1 // indirect
	github.com/kr/pty v1.1.1 // indirect
	github.com/kr/text v0.2.0 // indirect
	github.com/leodido/go-urn v1.2.0 // indirect
	github.com/lyft/protoc-gen-star v0.6.1 // indirect
	github.com/lyft/protoc-gen-star/v2 v2.0.3 // indirect
	github.com/magefile/mage v1.15.0 // indirect
	github.com/mailru/easyjson v0.7.7 // indirect
	github.com/mattetti/filebuffer v1.0.1 // indirect
	github.com/mattn/go-colorable v0.1.13 // indirect
	github.com/mattn/go-isatty v0.0.19 // indirect
	github.com/mattn/go-runewidth v0.0.9 // indirect
	github.com/mattn/go-sqlite3 v1.14.16 // indirect
	github.com/matttproud/golang_protobuf_extensions v1.0.4 // indirect
	github.com/matttproud/golang_protobuf_extensions/v2 v2.0.0 // indirect
	github.com/minio/asm2plan9s v0.0.0-20200509001527-cdd76441f9d8 // indirect
	github.com/minio/c2goasm v0.0.0-20190812172519-36a3d3bbc4f3 // indirect
	github.com/mitchellh/go-testing-interface v1.14.1 // indirect
	github.com/mitchellh/mapstructure v1.5.0 // indirect
	github.com/mitchellh/reflectwalk v1.0.2 // indirect
	github.com/modern-go/concurrent v0.0.0-20180306012644-bacd9c7ef1dd // indirect
	github.com/modern-go/reflect2 v1.0.2 // indirect
	github.com/mohae/deepcopy v0.0.0-20170929034955-c48cc78d4826 // indirect
	github.com/mwitkow/go-conntrack v0.0.0-20190716064945-2f068394615f // indirect
	github.com/oklog/run v1.1.0 // indirect
	github.com/olekukonko/tablewriter v0.0.5 // indirect
	github.com/opentracing/opentracing-go v1.1.0 // indirect
	github.com/perimeterx/marshmallow v1.1.5 // indirect
	github.com/phpdave11/gofpdf v1.4.2 // indirect
	github.com/phpdave11/gofpdi v1.0.13 // indirect
	github.com/pierrec/lz4/v4 v4.1.18 // indirect
	github.com/pkg/diff v0.0.0-20210226163009-20ebb0f2a09e // indirect
	github.com/pkg/errors v0.9.1 // indirect
	github.com/pkg/sftp v1.13.1 // indirect
	github.com/pmezard/go-difflib v1.0.0 // indirect
	github.com/prometheus/client_golang v1.18.0 // indirect
	github.com/prometheus/client_model v0.5.0 // indirect
	github.com/prometheus/common v0.46.0 // indirect
	github.com/prometheus/procfs v0.12.0 // indirect
	github.com/remyoudompheng/bigfft v0.0.0-20230129092748-24d4a6f8daec // indirect
	github.com/rogpeppe/fastuuid v1.2.0 // indirect
	github.com/rogpeppe/go-charset v0.0.0-20180617210344-2471d30d28b4 // indirect
	github.com/rogpeppe/go-internal v1.11.0 // indirect
	github.com/russross/blackfriday/v2 v2.1.0 // indirect
	github.com/ruudk/golang-pdf417 v0.0.0-20201230142125-a7e3863a1245 // indirect
	github.com/shurcooL/sanitized_anchor_name v1.0.0 // indirect
	github.com/sirupsen/logrus v1.6.0 // indirect
	github.com/smartystreets/assertions v0.0.0-20190116191733-b6c0e53d7304 // indirect
	github.com/smartystreets/goconvey v0.0.0-20181108003508-044398e4856c // indirect
	github.com/spaolacci/murmur3 v0.0.0-20180118202830-f09979ecbc72 // indirect
	github.com/spf13/afero v1.9.2 // indirect
	github.com/stretchr/objx v0.5.0 // indirect
	github.com/stretchr/testify v1.8.4 // indirect
	github.com/substrait-io/substrait-go v0.4.2 // indirect
	github.com/tidwall/gjson v1.14.2 // indirect
	github.com/tidwall/match v1.1.1 // indirect
	github.com/tidwall/pretty v1.2.0 // indirect
	github.com/tidwall/sjson v1.2.5 // indirect
	github.com/ugorji/go v1.2.7 // indirect
	github.com/ugorji/go/codec v1.2.7 // indirect
	github.com/unknwon/bra v0.0.0-20200517080246-1e3013ecaff8 // indirect
	github.com/unknwon/com v1.0.1 // indirect
	github.com/unknwon/log v0.0.0-20150304194804-e617c87089d3 // indirect
	github.com/urfave/cli v1.22.14 // indirect
	github.com/xhit/go-str2duration v1.2.0 // indirect
	github.com/xhit/go-str2duration/v2 v2.1.0 // indirect
	github.com/yuin/goldmark v1.4.13 // indirect
	github.com/zeebo/assert v1.3.0 // indirect
	github.com/zeebo/xxh3 v1.0.2 // indirect
	go.opencensus.io v0.24.0 // indirect
	go.opentelemetry.io/contrib/instrumentation/google.golang.org/grpc/otelgrpc v0.47.0 // indirect
	go.opentelemetry.io/contrib/instrumentation/net/http/httptrace/otelhttptrace v0.46.1 // indirect
	go.opentelemetry.io/contrib/instrumentation/net/http/otelhttp v0.46.1 // indirect
	go.opentelemetry.io/contrib/propagators/jaeger v1.22.0 // indirect
	go.opentelemetry.io/contrib/samplers/jaegerremote v0.16.0 // indirect
	go.opentelemetry.io/otel v1.22.0 // indirect
	go.opentelemetry.io/otel/exporters/otlp/otlptrace v1.21.0 // indirect
	go.opentelemetry.io/otel/exporters/otlp/otlptrace/otlptracegrpc v1.21.0 // indirect
	go.opentelemetry.io/otel/metric v1.22.0 // indirect
	go.opentelemetry.io/otel/sdk v1.22.0 // indirect
	go.opentelemetry.io/otel/trace v1.22.0 // indirect
	go.opentelemetry.io/proto/otlp v1.0.0 // indirect
	go.uber.org/atomic v1.7.0 // indirect
	go.uber.org/goleak v1.3.0 // indirect
	go.uber.org/multierr v1.6.0 // indirect
	go.uber.org/zap v1.18.1 // indirect
	golang.org/x/crypto v0.18.0 // indirect
	golang.org/x/exp v0.0.0-20231006140011-7918f672742d // indirect
	golang.org/x/image v0.0.0-20220302094943-723b81ca9867 // indirect
	golang.org/x/lint v0.0.0-20210508222113-6edffad5e616 // indirect
	golang.org/x/mobile v0.0.0-20190719004257-d2bd2a29d028 // indirect
	golang.org/x/mod v0.13.0 // indirect
	golang.org/x/net v0.20.0 // indirect
	golang.org/x/oauth2 v0.16.0 // indirect
	golang.org/x/sync v0.4.0 // indirect
	golang.org/x/sys v0.16.0 // indirect
	golang.org/x/term v0.16.0 // indirect
	golang.org/x/text v0.14.0 // indirect
	golang.org/x/time v0.3.0 // indirect
	golang.org/x/tools v0.14.0 // indirect
	golang.org/x/xerrors v0.0.0-20220907171357-04be3eba64a2 // indirect
	gonum.org/v1/gonum v0.12.0 // indirect
	gonum.org/v1/netlib v0.0.0-20190313105609-8cb42192e0e0 // indirect
	gonum.org/v1/plot v0.10.1 // indirect
	google.golang.org/api v0.128.0 // indirect
	google.golang.org/appengine v1.6.8 // indirect
	google.golang.org/genproto v0.0.0-20231002182017-d307bd883b97 // indirect
	google.golang.org/genproto/googleapis/api v0.0.0-20231002182017-d307bd883b97 // indirect
	google.golang.org/genproto/googleapis/bytestream v0.0.0-20230530153820-e85fd2cbaebc // indirect
	google.golang.org/genproto/googleapis/rpc v0.0.0-20231002182017-d307bd883b97 // indirect
	google.golang.org/grpc v1.60.1 // indirect
	google.golang.org/grpc/cmd/protoc-gen-go-grpc v1.1.0 // indirect
	google.golang.org/protobuf v1.32.0 // indirect
	gopkg.in/alecthomas/kingpin.v2 v2.2.6 // indirect
	gopkg.in/check.v1 v1.0.0-20201130134442-10cb98267c6c // indirect
	gopkg.in/errgo.v2 v2.1.0 // indirect
	gopkg.in/fsnotify/fsnotify.v1 v1.4.7 // indirect
	gopkg.in/yaml.v2 v2.4.0 // indirect
	gopkg.in/yaml.v3 v3.0.1 // indirect
	honnef.co/go/tools v0.1.3 // indirect
	lukechampine.com/uint128 v1.3.0 // indirect
	modernc.org/cc/v3 v3.40.0 // indirect
	modernc.org/ccgo/v3 v3.16.13 // indirect
	modernc.org/ccorpus v1.11.6 // indirect
	modernc.org/httpfs v1.0.6 // indirect
	modernc.org/libc v1.22.4 // indirect
	modernc.org/mathutil v1.5.0 // indirect
	modernc.org/memory v1.5.0 // indirect
	modernc.org/opt v0.1.3 // indirect
	modernc.org/sqlite v1.21.2 // indirect
	modernc.org/strutil v1.1.3 // indirect
	modernc.org/tcl v1.15.1 // indirect
	modernc.org/token v1.1.0 // indirect
	modernc.org/z v1.7.0 // indirect
	rsc.io/binaryregexp v0.2.0 // indirect
	rsc.io/pdf v0.1.1 // indirect
	rsc.io/quote/v3 v3.1.0 // indirect
	rsc.io/sampler v1.3.0 // indirect
)
